#fabric,fromrack,fromrackunit,fromport,torack,torackunit,toport
TENANT,S02,33,1,S02,7,NIC.Slot.1-1-1
TENANT,S02,33,2,S02,8,NIC.Slot.1-1-1
TENANT,S02,33,3,S02,9,NIC.Slot.1-1-1
TENANT,S02,33,4,S02,10,NIC.Slot.1-1-1
TENANT,S02,33,5,S02,11,NIC.Slot.1-1-1
TENANT,S02,33,6,S02,12,NIC.Slot.1-1-1
TENANT,S02,33,7,S02,13,NIC.Slot.1-1-1
TENANT,S02,33,8,S02,14,NIC.Slot.1-1-1
TENANT,S02,33,9,S02,15,NIC.Slot.1-1-1
TENANT,S02,33,10,S02,16,NIC.Slot.1-1-1
TENANT,S02,33,11,S02,17,NIC.Slot.1-1-1
TENANT,S02,33,12,S02,18,NIC.Slot.1-1-1
TENANT,S02,33,13,S02,19,NIC.Slot.1-1-1
TENANT,S02,33,14,S02,20,NIC.Slot.1-1-1
TENANT,S02,33,15,S02,21,NIC.Slot.1-1-1
TENANT,S02,33,16,S02,22,NIC.Slot.1-1-1
TENANT,S02,33,17,S02,23,NIC.Slot.1-1-1
TENANT,S02,33,18,S02,24,NIC.Slot.1-1-1
TENANT,S02,33,19,S02,25,NIC.Slot.1-1-1
TENANT,S02,33,20,S02,26,NIC.Slot.1-1-1
TENANT,S02,33,21,S02,27,NIC.Slot.1-1-1
TENANT,S02,33,22,S02,28,NIC.Slot.1-1-1
TENANT,S02,33,23,S02,29,NIC.Slot.1-1-1
TENANT,S02,33,24,S02,30,NIC.Slot.1-1-1
TENANT,S02,33,25,S03,7,NIC.Slot.3-1-1
TENANT,S02,33,26,S03,8,NIC.Slot.3-1-1
TENANT,S02,33,27,S03,9,NIC.Slot.3-1-1
TENANT,S02,33,28,S03,10,NIC.Slot.3-1-1
TENANT,S02,33,29,S03,11,NIC.Slot.3-1-1
TENANT,S02,33,30,S03,12,NIC.Slot.3-1-1
TENANT,S02,33,31,S03,13,NIC.Slot.3-1-1
TENANT,S02,33,32,S03,14,NIC.Slot.3-1-1
TENANT,S02,33,33,S03,15,NIC.Slot.3-1-1
TENANT,S02,33,34,S03,16,NIC.Slot.3-1-1
TENANT,S02,33,35,S03,17,NIC.Slot.3-1-1
TENANT,S02,33,36,S03,18,NIC.Slot.3-1-1
TENANT,S02,33,37,S03,19,NIC.Slot.3-1-1
TENANT,S02,33,38,S03,20,NIC.Slot.3-1-1
TENANT,S02,33,39,S03,21,NIC.Slot.3-1-1
TENANT,S02,33,40,S03,22,NIC.Slot.3-1-1
TENANT,S02,33,41,S03,23,NIC.Slot.3-1-1
TENANT,S02,33,42,S03,24,NIC.Slot.3-1-1
TENANT,S02,33,43,S03,25,NIC.Slot.3-1-1
TENANT,S02,33,44,S03,26,NIC.Slot.3-1-1
TENANT,S02,33,45,S03,27,NIC.Slot.3-1-1
TENANT,S02,33,46,S03,28,NIC.Slot.3-1-1
TENANT,S02,33,47,S03,29,NIC.Slot.3-1-1
TENANT,S02,33,48,S03,30,NIC.Slot.3-1-1
TENANT,S03,33,1,S03,7,NIC.Slot.1-1-1
TENANT,S03,33,2,S03,8,NIC.Slot.1-1-1
TENANT,S03,33,3,S03,9,NIC.Slot.1-1-1
TENANT,S03,33,4,S03,10,NIC.Slot.1-1-1
TENANT,S03,33,5,S03,11,NIC.Slot.1-1-1
TENANT,S03,33,6,S03,12,NIC.Slot.1-1-1
TENANT,S03,33,7,S03,13,NIC.Slot.1-1-1
TENANT,S03,33,8,S03,14,NIC.Slot.1-1-1
TENANT,S03,33,9,S03,15,NIC.Slot.1-1-1
TENANT,S03,33,10,S03,16,NIC.Slot.1-1-1
TENANT,S03,33,11,S03,17,NIC.Slot.1-1-1
TENANT,S03,33,12,S03,18,NIC.Slot.1-1-1
TENANT,S03,33,13,S03,19,NIC.Slot.1-1-1
TENANT,S03,33,14,S03,20,NIC.Slot.1-1-1
TENANT,S03,33,15,S03,21,NIC.Slot.1-1-1
TENANT,S03,33,16,S03,22,NIC.Slot.1-1-1
TENANT,S03,33,17,S03,23,NIC.Slot.1-1-1
TENANT,S03,33,18,S03,24,NIC.Slot.1-1-1
TENANT,S03,33,19,S03,25,NIC.Slot.1-1-1
TENANT,S03,33,20,S03,26,NIC.Slot.1-1-1
TENANT,S03,33,21,S03,27,NIC.Slot.1-1-1
TENANT,S03,33,22,S03,28,NIC.Slot.1-1-1
TENANT,S03,33,23,S03,29,NIC.Slot.1-1-1
TENANT,S03,33,24,S03,30,NIC.Slot.1-1-1
TENANT,S03,33,25,S02,7,NIC.Slot.3-1-1
TENANT,S03,33,26,S02,8,NIC.Slot.3-1-1
TENANT,S03,33,27,S02,9,NIC.Slot.3-1-1
TENANT,S03,33,28,S02,10,NIC.Slot.3-1-1
TENANT,S03,33,29,S02,11,NIC.Slot.3-1-1
TENANT,S03,33,30,S02,12,NIC.Slot.3-1-1
TENANT,S03,33,31,S02,13,NIC.Slot.3-1-1
TENANT,S03,33,32,S02,14,NIC.Slot.3-1-1
TENANT,S03,33,33,S02,15,NIC.Slot.3-1-1
TENANT,S03,33,34,S02,16,NIC.Slot.3-1-1
TENANT,S03,33,35,S02,17,NIC.Slot.3-1-1
TENANT,S03,33,36,S02,18,NIC.Slot.3-1-1
TENANT,S03,33,37,S02,19,NIC.Slot.3-1-1
TENANT,S03,33,38,S02,20,NIC.Slot.3-1-1
TENANT,S03,33,39,S02,21,NIC.Slot.3-1-1
TENANT,S03,33,40,S02,22,NIC.Slot.3-1-1
TENANT,S03,33,41,S02,23,NIC.Slot.3-1-1
TENANT,S03,33,42,S02,24,NIC.Slot.3-1-1
TENANT,S03,33,43,S02,25,NIC.Slot.3-1-1
TENANT,S03,33,44,S02,26,NIC.Slot.3-1-1
TENANT,S03,33,45,S02,27,NIC.Slot.3-1-1
TENANT,S03,33,46,S02,28,NIC.Slot.3-1-1
TENANT,S03,33,47,S02,29,NIC.Slot.3-1-1
TENANT,S03,33,48,S02,30,NIC.Slot.3-1-1
TENANT,S04,33,1,S04,7,NIC.Slot.1-1-1
TENANT,S04,33,2,S04,8,NIC.Slot.1-1-1
TENANT,S04,33,3,S04,9,NIC.Slot.1-1-1
TENANT,S04,33,4,S04,10,NIC.Slot.1-1-1
TENANT,S04,33,5,S04,11,NIC.Slot.1-1-1
TENANT,S04,33,6,S04,12,NIC.Slot.1-1-1
TENANT,S04,33,7,S04,13,NIC.Slot.1-1-1
TENANT,S04,33,8,S04,14,NIC.Slot.1-1-1
TENANT,S04,33,9,S04,15,NIC.Slot.1-1-1
TENANT,S04,33,10,S04,16,NIC.Slot.1-1-1
TENANT,S04,33,11,S04,17,NIC.Slot.1-1-1
TENANT,S04,33,12,S04,18,NIC.Slot.1-1-1
TENANT,S04,33,13,S04,19,NIC.Slot.1-1-1
TENANT,S04,33,14,S04,20,NIC.Slot.1-1-1
TENANT,S04,33,15,S04,21,NIC.Slot.1-1-1
TENANT,S04,33,16,S04,22,NIC.Slot.1-1-1
TENANT,S04,33,17,S04,23,NIC.Slot.1-1-1
TENANT,S04,33,18,S04,24,NIC.Slot.1-1-1
TENANT,S04,33,19,S04,25,NIC.Slot.1-1-1
TENANT,S04,33,20,S04,26,NIC.Slot.1-1-1
TENANT,S04,33,21,S04,27,NIC.Slot.1-1-1
TENANT,S04,33,22,S04,28,NIC.Slot.1-1-1
TENANT,S04,33,23,S04,29,NIC.Slot.1-1-1
TENANT,S04,33,24,S04,30,NIC.Slot.1-1-1
TENANT,S04,33,25,S05,7,NIC.Slot.3-1-1
TENANT,S04,33,26,S05,8,NIC.Slot.3-1-1
TENANT,S04,33,27,S05,9,NIC.Slot.3-1-1
TENANT,S04,33,28,S05,10,NIC.Slot.3-1-1
TENANT,S04,33,29,S05,11,NIC.Slot.3-1-1
TENANT,S04,33,30,S05,12,NIC.Slot.3-1-1
TENANT,S04,33,31,S05,13,NIC.Slot.3-1-1
TENANT,S04,33,32,S05,14,NIC.Slot.3-1-1
TENANT,S04,33,33,S05,15,NIC.Slot.3-1-1
TENANT,S04,33,34,S05,16,NIC.Slot.3-1-1
TENANT,S04,33,35,S05,17,NIC.Slot.3-1-1
TENANT,S04,33,36,S05,18,NIC.Slot.3-1-1
TENANT,S04,33,37,S05,19,NIC.Slot.3-1-1
TENANT,S04,33,38,S05,20,NIC.Slot.3-1-1
TENANT,S04,33,39,S05,21,NIC.Slot.3-1-1
TENANT,S04,33,40,S05,22,NIC.Slot.3-1-1
TENANT,S04,33,41,S05,23,NIC.Slot.3-1-1
TENANT,S04,33,42,S05,24,NIC.Slot.3-1-1
TENANT,S04,33,43,S05,25,NIC.Slot.3-1-1
TENANT,S04,33,44,S05,26,NIC.Slot.3-1-1
TENANT,S04,33,45,S05,27,NIC.Slot.3-1-1
TENANT,S04,33,46,S05,28,NIC.Slot.3-1-1
TENANT,S04,33,47,S05,29,NIC.Slot.3-1-1
TENANT,S04,33,48,S05,30,NIC.Slot.3-1-1
TENANT,S05,33,1,S05,7,NIC.Slot.1-1-1
TENANT,S05,33,2,S05,8,NIC.Slot.1-1-1
TENANT,S05,33,3,S05,9,NIC.Slot.1-1-1
TENANT,S05,33,4,S05,10,NIC.Slot.1-1-1
TENANT,S05,33,5,S05,11,NIC.Slot.1-1-1
TENANT,S05,33,6,S05,12,NIC.Slot.1-1-1
TENANT,S05,33,7,S05,13,NIC.Slot.1-1-1
TENANT,S05,33,8,S05,14,NIC.Slot.1-1-1
TENANT,S05,33,9,S05,15,NIC.Slot.1-1-1
TENANT,S05,33,10,S05,16,NIC.Slot.1-1-1
TENANT,S05,33,11,S05,17,NIC.Slot.1-1-1
TENANT,S05,33,12,S05,18,NIC.Slot.1-1-1
TENANT,S05,33,13,S05,19,NIC.Slot.1-1-1
TENANT,S05,33,14,S05,20,NIC.Slot.1-1-1
TENANT,S05,33,15,S05,21,NIC.Slot.1-1-1
TENANT,S05,33,16,S05,22,NIC.Slot.1-1-1
TENANT,S05,33,17,S05,23,NIC.Slot.1-1-1
TENANT,S05,33,18,S05,24,NIC.Slot.1-1-1
TENANT,S05,33,19,S05,25,NIC.Slot.1-1-1
TENANT,S05,33,20,S05,26,NIC.Slot.1-1-1
TENANT,S05,33,21,S05,27,NIC.Slot.1-1-1
TENANT,S05,33,22,S05,28,NIC.Slot.1-1-1
TENANT,S05,33,23,S05,29,NIC.Slot.1-1-1
TENANT,S05,33,24,S05,30,NIC.Slot.1-1-1
TENANT,S05,33,25,S04,7,NIC.Slot.3-1-1
TENANT,S05,33,26,S04,8,NIC.Slot.3-1-1
TENANT,S05,33,27,S04,9,NIC.Slot.3-1-1
TENANT,S05,33,28,S04,10,NIC.Slot.3-1-1
TENANT,S05,33,29,S04,11,NIC.Slot.3-1-1
TENANT,S05,33,30,S04,12,NIC.Slot.3-1-1
TENANT,S05,33,31,S04,13,NIC.Slot.3-1-1
TENANT,S05,33,32,S04,14,NIC.Slot.3-1-1
TENANT,S05,33,33,S04,15,NIC.Slot.3-1-1
TENANT,S05,33,34,S04,16,NIC.Slot.3-1-1
TENANT,S05,33,35,S04,17,NIC.Slot.3-1-1
TENANT,S05,33,36,S04,18,NIC.Slot.3-1-1
TENANT,S05,33,37,S04,19,NIC.Slot.3-1-1
TENANT,S05,33,38,S04,20,NIC.Slot.3-1-1
TENANT,S05,33,39,S04,21,NIC.Slot.3-1-1
TENANT,S05,33,40,S04,22,NIC.Slot.3-1-1
TENANT,S05,33,41,S04,23,NIC.Slot.3-1-1
TENANT,S05,33,42,S04,24,NIC.Slot.3-1-1
TENANT,S05,33,43,S04,25,NIC.Slot.3-1-1
TENANT,S05,33,44,S04,26,NIC.Slot.3-1-1
TENANT,S05,33,45,S04,27,NIC.Slot.3-1-1
TENANT,S05,33,46,S04,28,NIC.Slot.3-1-1
TENANT,S05,33,47,S04,29,NIC.Slot.3-1-1
TENANT,S05,33,48,S04,30,NIC.Slot.3-1-1
STORAGE,S02,30,1,S02,7,NIC.Slot.1-2-1
STORAGE,S02,30,2,S02,8,NIC.Slot.1-2-1
STORAGE,S02,30,3,S02,9,NIC.Slot.1-2-1
STORAGE,S02,30,4,S02,10,NIC.Slot.1-2-1
STORAGE,S02,30,5,S02,11,NIC.Slot.1-2-1
STORAGE,S02,30,6,S02,12,NIC.Slot.1-2-1
STORAGE,S02,30,7,S02,13,NIC.Slot.1-2-1
STORAGE,S02,30,8,S02,14,NIC.Slot.1-2-1
STORAGE,S02,30,9,S02,15,NIC.Slot.1-2-1
STORAGE,S02,30,10,S02,16,NIC.Slot.1-2-1
STORAGE,S02,30,11,S02,17,NIC.Slot.1-2-1
STORAGE,S02,30,12,S02,18,NIC.Slot.1-2-1
STORAGE,S02,30,13,S02,19,NIC.Slot.1-2-1
STORAGE,S02,30,14,S02,20,NIC.Slot.1-2-1
STORAGE,S02,30,15,S02,21,NIC.Slot.1-2-1
STORAGE,S02,30,16,S02,22,NIC.Slot.1-2-1
STORAGE,S02,30,17,S02,23,NIC.Slot.1-2-1
STORAGE,S02,30,18,S02,24,NIC.Slot.1-2-1
STORAGE,S02,30,19,S02,25,NIC.Slot.1-2-1
STORAGE,S02,30,20,S02,26,NIC.Slot.1-2-1
STORAGE,S02,30,21,S02,27,NIC.Slot.1-2-1
STORAGE,S02,30,22,S02,28,NIC.Slot.1-2-1
STORAGE,S02,30,23,S02,29,NIC.Slot.1-2-1
STORAGE,S02,30,24,S02,30,NIC.Slot.1-2-1
STORAGE,S02,30,25,S03,7,NIC.Slot.3-2-1
STORAGE,S02,30,26,S03,8,NIC.Slot.3-2-1
STORAGE,S02,30,27,S03,9,NIC.Slot.3-2-1
STORAGE,S02,30,28,S03,10,NIC.Slot.3-2-1
STORAGE,S02,30,29,S03,11,NIC.Slot.3-2-1
STORAGE,S02,30,30,S03,12,NIC.Slot.3-2-1
STORAGE,S02,30,31,S03,13,NIC.Slot.3-2-1
STORAGE,S02,30,32,S03,14,NIC.Slot.3-2-1
STORAGE,S02,30,33,S03,15,NIC.Slot.3-2-1
STORAGE,S02,30,34,S03,16,NIC.Slot.3-2-1
STORAGE,S02,30,35,S03,17,NIC.Slot.3-2-1
STORAGE,S02,30,36,S03,18,NIC.Slot.3-2-1
STORAGE,S02,30,37,S03,19,NIC.Slot.3-2-1
STORAGE,S02,30,38,S03,20,NIC.Slot.3-2-1
STORAGE,S02,30,39,S03,21,NIC.Slot.3-2-1
STORAGE,S02,30,40,S03,22,NIC.Slot.3-2-1
STORAGE,S02,30,41,S03,23,NIC.Slot.3-2-1
STORAGE,S02,30,42,S03,24,NIC.Slot.3-2-1
STORAGE,S02,30,43,S03,25,NIC.Slot.3-2-1
STORAGE,S02,30,44,S03,26,NIC.Slot.3-2-1
STORAGE,S02,30,45,S03,27,NIC.Slot.3-2-1
STORAGE,S02,30,46,S03,28,NIC.Slot.3-2-1
STORAGE,S02,30,47,S03,29,NIC.Slot.3-2-1
STORAGE,S02,30,48,S03,30,NIC.Slot.3-2-1
STORAGE,S03,30,1,S03,7,NIC.Slot.1-2-1
STORAGE,S03,30,2,S03,8,NIC.Slot.1-2-1
STORAGE,S03,30,3,S03,9,NIC.Slot.1-2-1
STORAGE,S03,30,4,S03,10,NIC.Slot.1-2-1
STORAGE,S03,30,5,S03,11,NIC.Slot.1-2-1
STORAGE,S03,30,6,S03,12,NIC.Slot.1-2-1
STORAGE,S03,30,7,S03,13,NIC.Slot.1-2-1
STORAGE,S03,30,8,S03,14,NIC.Slot.1-2-1
STORAGE,S03,30,9,S03,15,NIC.Slot.1-2-1
STORAGE,S03,30,10,S03,16,NIC.Slot.1-2-1
STORAGE,S03,30,11,S03,17,NIC.Slot.1-2-1
STORAGE,S03,30,12,S03,18,NIC.Slot.1-2-1
STORAGE,S03,30,13,S03,19,NIC.Slot.1-2-1
STORAGE,S03,30,14,S03,20,NIC.Slot.1-2-1
STORAGE,S03,30,15,S03,21,NIC.Slot.1-2-1
STORAGE,S03,30,16,S03,22,NIC.Slot.1-2-1
STORAGE,S03,30,17,S03,23,NIC.Slot.1-2-1
STORAGE,S03,30,18,S03,24,NIC.Slot.1-2-1
STORAGE,S03,30,19,S03,25,NIC.Slot.1-2-1
STORAGE,S03,30,20,S03,26,NIC.Slot.1-2-1
STORAGE,S03,30,21,S03,27,NIC.Slot.1-2-1
STORAGE,S03,30,22,S03,28,NIC.Slot.1-2-1
STORAGE,S03,30,23,S03,29,NIC.Slot.1-2-1
STORAGE,S03,30,24,S03,30,NIC.Slot.1-2-1
STORAGE,S03,30,25,S02,7,NIC.Slot.3-2-1
STORAGE,S03,30,26,S02,8,NIC.Slot.3-2-1
STORAGE,S03,30,27,S02,9,NIC.Slot.3-2-1
STORAGE,S03,30,28,S02,10,NIC.Slot.3-2-1
STORAGE,S03,30,29,S02,11,NIC.Slot.3-2-1
STORAGE,S03,30,30,S02,12,NIC.Slot.3-2-1
STORAGE,S03,30,31,S02,13,NIC.Slot.3-2-1
STORAGE,S03,30,32,S02,14,NIC.Slot.3-2-1
STORAGE,S03,30,33,S02,15,NIC.Slot.3-2-1
STORAGE,S03,30,34,S02,16,NIC.Slot.3-2-1
STORAGE,S03,30,35,S02,17,NIC.Slot.3-2-1
STORAGE,S03,30,36,S02,18,NIC.Slot.3-2-1
STORAGE,S03,30,37,S02,19,NIC.Slot.3-2-1
STORAGE,S03,30,38,S02,20,NIC.Slot.3-2-1
STORAGE,S03,30,39,S02,21,NIC.Slot.3-2-1
STORAGE,S03,30,40,S02,22,NIC.Slot.3-2-1
STORAGE,S03,30,41,S02,23,NIC.Slot.3-2-1
STORAGE,S03,30,42,S02,24,NIC.Slot.3-2-1
STORAGE,S03,30,43,S02,25,NIC.Slot.3-2-1
STORAGE,S03,30,44,S02,26,NIC.Slot.3-2-1
STORAGE,S03,30,45,S02,27,NIC.Slot.3-2-1
STORAGE,S03,30,46,S02,28,NIC.Slot.3-2-1
STORAGE,S03,30,47,S02,29,NIC.Slot.3-2-1
STORAGE,S03,30,48,S02,30,NIC.Slot.3-2-1
STORAGE,S04,30,1,S04,7,NIC.Slot.1-2-1
STORAGE,S04,30,2,S04,8,NIC.Slot.1-2-1
STORAGE,S04,30,3,S04,9,NIC.Slot.1-2-1
STORAGE,S04,30,4,S04,10,NIC.Slot.1-2-1
STORAGE,S04,30,5,S04,11,NIC.Slot.1-2-1
STORAGE,S04,30,6,S04,12,NIC.Slot.1-2-1
STORAGE,S04,30,7,S04,13,NIC.Slot.1-2-1
STORAGE,S04,30,8,S04,14,NIC.Slot.1-2-1
STORAGE,S04,30,9,S04,15,NIC.Slot.1-2-1
STORAGE,S04,30,10,S04,16,NIC.Slot.1-2-1
STORAGE,S04,30,11,S04,17,NIC.Slot.1-2-1
STORAGE,S04,30,12,S04,18,NIC.Slot.1-2-1
STORAGE,S04,30,13,S04,19,NIC.Slot.1-2-1
STORAGE,S04,30,14,S04,20,NIC.Slot.1-2-1
STORAGE,S04,30,15,S04,21,NIC.Slot.1-2-1
STORAGE,S04,30,16,S04,22,NIC.Slot.1-2-1
STORAGE,S04,30,17,S04,23,NIC.Slot.1-2-1
STORAGE,S04,30,18,S04,24,NIC.Slot.1-2-1
STORAGE,S04,30,19,S04,25,NIC.Slot.1-2-1
STORAGE,S04,30,20,S04,26,NIC.Slot.1-2-1
STORAGE,S04,30,21,S04,27,NIC.Slot.1-2-1
STORAGE,S04,30,22,S04,28,NIC.Slot.1-2-1
STORAGE,S04,30,23,S04,29,NIC.Slot.1-2-1
STORAGE,S04,30,24,S04,30,NIC.Slot.1-2-1
STORAGE,S04,30,25,S05,7,NIC.Slot.3-2-1
STORAGE,S04,30,26,S05,8,NIC.Slot.3-2-1
STORAGE,S04,30,27,S05,9,NIC.Slot.3-2-1
STORAGE,S04,30,28,S05,10,NIC.Slot.3-2-1
STORAGE,S04,30,29,S05,11,NIC.Slot.3-2-1
STORAGE,S04,30,30,S05,12,NIC.Slot.3-2-1
STORAGE,S04,30,31,S05,13,NIC.Slot.3-2-1
STORAGE,S04,30,32,S05,14,NIC.Slot.3-2-1
STORAGE,S04,30,33,S05,15,NIC.Slot.3-2-1
STORAGE,S04,30,34,S05,16,NIC.Slot.3-2-1
STORAGE,S04,30,35,S05,17,NIC.Slot.3-2-1
STORAGE,S04,30,36,S05,18,NIC.Slot.3-2-1
STORAGE,S04,30,37,S05,19,NIC.Slot.3-2-1
STORAGE,S04,30,38,S05,20,NIC.Slot.3-2-1
STORAGE,S04,30,39,S05,21,NIC.Slot.3-2-1
STORAGE,S04,30,40,S05,22,NIC.Slot.3-2-1
STORAGE,S04,30,41,S05,23,NIC.Slot.3-2-1
STORAGE,S04,30,42,S05,24,NIC.Slot.3-2-1
STORAGE,S04,30,43,S05,25,NIC.Slot.3-2-1
STORAGE,S04,30,44,S05,26,NIC.Slot.3-2-1
STORAGE,S04,30,45,S05,27,NIC.Slot.3-2-1
STORAGE,S04,30,46,S05,28,NIC.Slot.3-2-1
STORAGE,S04,30,47,S05,29,NIC.Slot.3-2-1
STORAGE,S04,30,48,S05,30,NIC.Slot.3-2-1
STORAGE,S05,30,1,S05,7,NIC.Slot.1-2-1
STORAGE,S05,30,2,S05,8,NIC.Slot.1-2-1
STORAGE,S05,30,3,S05,9,NIC.Slot.1-2-1
STORAGE,S05,30,4,S05,10,NIC.Slot.1-2-1
STORAGE,S05,30,5,S05,11,NIC.Slot.1-2-1
STORAGE,S05,30,6,S05,12,NIC.Slot.1-2-1
STORAGE,S05,30,7,S05,13,NIC.Slot.1-2-1
STORAGE,S05,30,8,S05,14,NIC.Slot.1-2-1
STORAGE,S05,30,9,S05,15,NIC.Slot.1-2-1
STORAGE,S05,30,10,S05,16,NIC.Slot.1-2-1
STORAGE,S05,30,11,S05,17,NIC.Slot.1-2-1
STORAGE,S05,30,12,S05,18,NIC.Slot.1-2-1
STORAGE,S05,30,13,S05,19,NIC.Slot.1-2-1
STORAGE,S05,30,14,S05,20,NIC.Slot.1-2-1
STORAGE,S05,30,15,S05,21,NIC.Slot.1-2-1
STORAGE,S05,30,16,S05,22,NIC.Slot.1-2-1
STORAGE,S05,30,17,S05,23,NIC.Slot.1-2-1
STORAGE,S05,30,18,S05,24,NIC.Slot.1-2-1
STORAGE,S05,30,19,S05,25,NIC.Slot.1-2-1
STORAGE,S05,30,20,S05,26,NIC.Slot.1-2-1
STORAGE,S05,30,21,S05,27,NIC.Slot.1-2-1
STORAGE,S05,30,22,S05,28,NIC.Slot.1-2-1
STORAGE,S05,30,23,S05,29,NIC.Slot.1-2-1
STORAGE,S05,30,24,S05,30,NIC.Slot.1-2-1
STORAGE,S05,30,25,S04,7,NIC.Slot.3-2-1
STORAGE,S05,30,26,S04,8,NIC.Slot.3-2-1
STORAGE,S05,30,27,S04,9,NIC.Slot.3-2-1
STORAGE,S05,30,28,S04,10,NIC.Slot.3-2-1
STORAGE,S05,30,29,S04,11,NIC.Slot.3-2-1
STORAGE,S05,30,30,S04,12,NIC.Slot.3-2-1
STORAGE,S05,30,31,S04,13,NIC.Slot.3-2-1
STORAGE,S05,30,32,S04,14,NIC.Slot.3-2-1
STORAGE,S05,30,33,S04,15,NIC.Slot.3-2-1
STORAGE,S05,30,34,S04,16,NIC.Slot.3-2-1
STORAGE,S05,30,35,S04,17,NIC.Slot.3-2-1
STORAGE,S05,30,36,S04,18,NIC.Slot.3-2-1
STORAGE,S05,30,37,S04,19,NIC.Slot.3-2-1
STORAGE,S05,30,38,S04,20,NIC.Slot.3-2-1
STORAGE,S05,30,39,S04,21,NIC.Slot.3-2-1
STORAGE,S05,30,40,S04,22,NIC.Slot.3-2-1
STORAGE,S05,30,41,S04,23,NIC.Slot.3-2-1
STORAGE,S05,30,42,S04,24,NIC.Slot.3-2-1
STORAGE,S05,30,43,S04,25,NIC.Slot.3-2-1
STORAGE,S05,30,44,S04,26,NIC.Slot.3-2-1
STORAGE,S05,30,45,S04,27,NIC.Slot.3-2-1
STORAGE,S05,30,46,S04,28,NIC.Slot.3-2-1
STORAGE,S05,30,47,S04,29,NIC.Slot.3-2-1
STORAGE,S05,30,48,S04,30,NIC.Slot.3-2-1
ADMIN,S02,36,1,S02,7,NIC.Integrated.1-1-1
ADMIN,S02,36,2,S02,8,NIC.Integrated.1-1-1
ADMIN,S02,36,3,S02,9,NIC.Integrated.1-1-1
ADMIN,S02,36,4,S02,10,NIC.Integrated.1-1-1
ADMIN,S02,36,5,S02,11,NIC.Integrated.1-1-1
ADMIN,S02,36,6,S02,12,NIC.Integrated.1-1-1
ADMIN,S02,36,7,S02,13,NIC.Integrated.1-1-1
ADMIN,S02,36,8,S02,14,NIC.Integrated.1-1-1
ADMIN,S02,36,9,S02,15,NIC.Integrated.1-1-1
ADMIN,S02,36,10,S02,16,NIC.Integrated.1-1-1
ADMIN,S02,36,11,S02,17,NIC.Integrated.1-1-1
ADMIN,S02,36,12,S02,18,NIC.Integrated.1-1-1
ADMIN,S02,36,13,S02,19,NIC.Integrated.1-1-1
ADMIN,S02,36,14,S02,20,NIC.Integrated.1-1-1
ADMIN,S02,36,15,S02,21,NIC.Integrated.1-1-1
ADMIN,S02,36,16,S02,22,NIC.Integrated.1-1-1
ADMIN,S02,36,17,S02,23,NIC.Integrated.1-1-1
ADMIN,S02,36,18,S02,24,NIC.Integrated.1-1-1
ADMIN,S02,36,19,S02,25,NIC.Integrated.1-1-1
ADMIN,S02,36,20,S02,26,NIC.Integrated.1-1-1
ADMIN,S02,36,21,S02,27,NIC.Integrated.1-1-1
ADMIN,S02,36,22,S02,28,NIC.Integrated.1-1-1
ADMIN,S02,36,23,S02,29,NIC.Integrated.1-1-1
ADMIN,S02,36,24,S02,30,NIC.Integrated.1-1-1
ADMIN,S02,36,25,S03,7,NIC.Integrated.1-2-1
ADMIN,S02,36,26,S03,8,NIC.Integrated.1-2-1
ADMIN,S02,36,27,S03,9,NIC.Integrated.1-2-1
ADMIN,S02,36,28,S03,10,NIC.Integrated.1-2-1
ADMIN,S02,36,29,S03,11,NIC.Integrated.1-2-1
ADMIN,S02,36,30,S03,12,NIC.Integrated.1-2-1
ADMIN,S02,36,31,S03,13,NIC.Integrated.1-2-1
ADMIN,S02,36,32,S03,14,NIC.Integrated.1-2-1
ADMIN,S02,36,33,S03,15,NIC.Integrated.1-2-1
ADMIN,S02,36,34,S03,16,NIC.Integrated.1-2-1
ADMIN,S02,36,35,S03,17,NIC.Integrated.1-2-1
ADMIN,S02,36,36,S03,18,NIC.Integrated.1-2-1
ADMIN,S02,36,37,S03,19,NIC.Integrated.1-2-1
ADMIN,S02,36,38,S03,20,NIC.Integrated.1-2-1
ADMIN,S02,36,39,S03,21,NIC.Integrated.1-2-1
ADMIN,S02,36,40,S03,22,NIC.Integrated.1-2-1
ADMIN,S02,36,41,S03,23,NIC.Integrated.1-2-1
ADMIN,S02,36,42,S03,24,NIC.Integrated.1-2-1
ADMIN,S02,36,43,S03,25,NIC.Integrated.1-2-1
ADMIN,S02,36,44,S03,26,NIC.Integrated.1-2-1
ADMIN,S02,36,45,S03,27,NIC.Integrated.1-2-1
ADMIN,S02,36,46,S03,28,NIC.Integrated.1-2-1
ADMIN,S02,36,47,S03,29,NIC.Integrated.1-2-1
ADMIN,S02,36,48,S03,30,NIC.Integrated.1-2-1
ADMIN,S03,36,1,S03,7,NIC.Integrated.1-1-1
ADMIN,S03,36,2,S03,8,NIC.Integrated.1-1-1
ADMIN,S03,36,3,S03,9,NIC.Integrated.1-1-1
ADMIN,S03,36,4,S03,10,NIC.Integrated.1-1-1
ADMIN,S03,36,5,S03,11,NIC.Integrated.1-1-1
ADMIN,S03,36,6,S03,12,NIC.Integrated.1-1-1
ADMIN,S03,36,7,S03,13,NIC.Integrated.1-1-1
ADMIN,S03,36,8,S03,14,NIC.Integrated.1-1-1
ADMIN,S03,36,9,S03,15,NIC.Integrated.1-1-1
ADMIN,S03,36,10,S03,16,NIC.Integrated.1-1-1
ADMIN,S03,36,11,S03,17,NIC.Integrated.1-1-1
ADMIN,S03,36,12,S03,18,NIC.Integrated.1-1-1
ADMIN,S03,36,13,S03,19,NIC.Integrated.1-1-1
ADMIN,S03,36,14,S03,20,NIC.Integrated.1-1-1
ADMIN,S03,36,15,S03,21,NIC.Integrated.1-1-1
ADMIN,S03,36,16,S03,22,NIC.Integrated.1-1-1
ADMIN,S03,36,17,S03,23,NIC.Integrated.1-1-1
ADMIN,S03,36,18,S03,24,NIC.Integrated.1-1-1
ADMIN,S03,36,19,S03,25,NIC.Integrated.1-1-1
ADMIN,S03,36,20,S03,26,NIC.Integrated.1-1-1
ADMIN,S03,36,21,S03,27,NIC.Integrated.1-1-1
ADMIN,S03,36,22,S03,28,NIC.Integrated.1-1-1
ADMIN,S03,36,23,S03,29,NIC.Integrated.1-1-1
ADMIN,S03,36,24,S03,30,NIC.Integrated.1-1-1
ADMIN,S03,36,25,S02,7,NIC.Integrated.1-2-1
ADMIN,S03,36,26,S02,8,NIC.Integrated.1-2-1
ADMIN,S03,36,27,S02,9,NIC.Integrated.1-2-1
ADMIN,S03,36,28,S02,10,NIC.Integrated.1-2-1
ADMIN,S03,36,29,S02,11,NIC.Integrated.1-2-1
ADMIN,S03,36,30,S02,12,NIC.Integrated.1-2-1
ADMIN,S03,36,31,S02,13,NIC.Integrated.1-2-1
ADMIN,S03,36,32,S02,14,NIC.Integrated.1-2-1
ADMIN,S03,36,33,S02,15,NIC.Integrated.1-2-1
ADMIN,S03,36,34,S02,16,NIC.Integrated.1-2-1
ADMIN,S03,36,35,S02,17,NIC.Integrated.1-2-1
ADMIN,S03,36,36,S02,18,NIC.Integrated.1-2-1
ADMIN,S03,36,37,S02,19,NIC.Integrated.1-2-1
ADMIN,S03,36,38,S02,20,NIC.Integrated.1-2-1
ADMIN,S03,36,39,S02,21,NIC.Integrated.1-2-1
ADMIN,S03,36,40,S02,22,NIC.Integrated.1-2-1
ADMIN,S03,36,41,S02,23,NIC.Integrated.1-2-1
ADMIN,S03,36,42,S02,24,NIC.Integrated.1-2-1
ADMIN,S03,36,43,S02,25,NIC.Integrated.1-2-1
ADMIN,S03,36,44,S02,26,NIC.Integrated.1-2-1
ADMIN,S03,36,45,S02,27,NIC.Integrated.1-2-1
ADMIN,S03,36,46,S02,28,NIC.Integrated.1-2-1
ADMIN,S03,36,47,S02,29,NIC.Integrated.1-2-1
ADMIN,S03,36,48,S02,30,NIC.Integrated.1-2-1
ADMIN,S04,36,1,S04,7,NIC.Integrated.1-1-1
ADMIN,S04,36,2,S04,8,NIC.Integrated.1-1-1
ADMIN,S04,36,3,S04,9,NIC.Integrated.1-1-1
ADMIN,S04,36,4,S04,10,NIC.Integrated.1-1-1
ADMIN,S04,36,5,S04,11,NIC.Integrated.1-1-1
ADMIN,S04,36,6,S04,12,NIC.Integrated.1-1-1
ADMIN,S04,36,7,S04,13,NIC.Integrated.1-1-1
ADMIN,S04,36,8,S04,14,NIC.Integrated.1-1-1
ADMIN,S04,36,9,S04,15,NIC.Integrated.1-1-1
ADMIN,S04,36,10,S04,16,NIC.Integrated.1-1-1
ADMIN,S04,36,11,S04,17,NIC.Integrated.1-1-1
ADMIN,S04,36,12,S04,18,NIC.Integrated.1-1-1
ADMIN,S04,36,13,S04,19,NIC.Integrated.1-1-1
ADMIN,S04,36,14,S04,20,NIC.Integrated.1-1-1
ADMIN,S04,36,15,S04,21,NIC.Integrated.1-1-1
ADMIN,S04,36,16,S04,22,NIC.Integrated.1-1-1
ADMIN,S04,36,17,S04,23,NIC.Integrated.1-1-1
ADMIN,S04,36,18,S04,24,NIC.Integrated.1-1-1
ADMIN,S04,36,19,S04,25,NIC.Integrated.1-1-1
ADMIN,S04,36,20,S04,26,NIC.Integrated.1-1-1
ADMIN,S04,36,21,S04,27,NIC.Integrated.1-1-1
ADMIN,S04,36,22,S04,28,NIC.Integrated.1-1-1
ADMIN,S04,36,23,S04,29,NIC.Integrated.1-1-1
ADMIN,S04,36,24,S04,30,NIC.Integrated.1-1-1
ADMIN,S04,36,25,S05,7,NIC.Integrated.1-2-1
ADMIN,S04,36,26,S05,8,NIC.Integrated.1-2-1
ADMIN,S04,36,27,S05,9,NIC.Integrated.1-2-1
ADMIN,S04,36,28,S05,10,NIC.Integrated.1-2-1
ADMIN,S04,36,29,S05,11,NIC.Integrated.1-2-1
ADMIN,S04,36,30,S05,12,NIC.Integrated.1-2-1
ADMIN,S04,36,31,S05,13,NIC.Integrated.1-2-1
ADMIN,S04,36,32,S05,14,NIC.Integrated.1-2-1
ADMIN,S04,36,33,S05,15,NIC.Integrated.1-2-1
ADMIN,S04,36,34,S05,16,NIC.Integrated.1-2-1
ADMIN,S04,36,35,S05,17,NIC.Integrated.1-2-1
ADMIN,S04,36,36,S05,18,NIC.Integrated.1-2-1
ADMIN,S04,36,37,S05,19,NIC.Integrated.1-2-1
ADMIN,S04,36,38,S05,20,NIC.Integrated.1-2-1
ADMIN,S04,36,39,S05,21,NIC.Integrated.1-2-1
ADMIN,S04,36,40,S05,22,NIC.Integrated.1-2-1
ADMIN,S04,36,41,S05,23,NIC.Integrated.1-2-1
ADMIN,S04,36,42,S05,24,NIC.Integrated.1-2-1
ADMIN,S04,36,43,S05,25,NIC.Integrated.1-2-1
ADMIN,S04,36,44,S05,26,NIC.Integrated.1-2-1
ADMIN,S04,36,45,S05,27,NIC.Integrated.1-2-1
ADMIN,S04,36,46,S05,28,NIC.Integrated.1-2-1
ADMIN,S04,36,47,S05,29,NIC.Integrated.1-2-1
ADMIN,S04,36,48,S05,30,NIC.Integrated.1-2-1
ADMIN,S05,36,1,S05,7,NIC.Integrated.1-1-1
ADMIN,S05,36,2,S05,8,NIC.Integrated.1-1-1
ADMIN,S05,36,3,S05,9,NIC.Integrated.1-1-1
ADMIN,S05,36,4,S05,10,NIC.Integrated.1-1-1
ADMIN,S05,36,5,S05,11,NIC.Integrated.1-1-1
ADMIN,S05,36,6,S05,12,NIC.Integrated.1-1-1
ADMIN,S05,36,7,S05,13,NIC.Integrated.1-1-1
ADMIN,S05,36,8,S05,14,NIC.Integrated.1-1-1
ADMIN,S05,36,9,S05,15,NIC.Integrated.1-1-1
ADMIN,S05,36,10,S05,16,NIC.Integrated.1-1-1
ADMIN,S05,36,11,S05,17,NIC.Integrated.1-1-1
ADMIN,S05,36,12,S05,18,NIC.Integrated.1-1-1
ADMIN,S05,36,13,S05,19,NIC.Integrated.1-1-1
ADMIN,S05,36,14,S05,20,NIC.Integrated.1-1-1
ADMIN,S05,36,15,S05,21,NIC.Integrated.1-1-1
ADMIN,S05,36,16,S05,22,NIC.Integrated.1-1-1
ADMIN,S05,36,17,S05,23,NIC.Integrated.1-1-1
ADMIN,S05,36,18,S05,24,NIC.Integrated.1-1-1
ADMIN,S05,36,19,S05,25,NIC.Integrated.1-1-1
ADMIN,S05,36,20,S05,26,NIC.Integrated.1-1-1
ADMIN,S05,36,21,S05,27,NIC.Integrated.1-1-1
ADMIN,S05,36,22,S05,28,NIC.Integrated.1-1-1
ADMIN,S05,36,23,S05,29,NIC.Integrated.1-1-1
ADMIN,S05,36,24,S05,30,NIC.Integrated.1-1-1
ADMIN,S05,36,25,S04,7,NIC.Integrated.1-2-1
ADMIN,S05,36,26,S04,8,NIC.Integrated.1-2-1
ADMIN,S05,36,27,S04,9,NIC.Integrated.1-2-1
ADMIN,S05,36,28,S04,10,NIC.Integrated.1-2-1
ADMIN,S05,36,29,S04,11,NIC.Integrated.1-2-1
ADMIN,S05,36,30,S04,12,NIC.Integrated.1-2-1
ADMIN,S05,36,31,S04,13,NIC.Integrated.1-2-1
ADMIN,S05,36,32,S04,14,NIC.Integrated.1-2-1
ADMIN,S05,36,33,S04,15,NIC.Integrated.1-2-1
ADMIN,S05,36,34,S04,16,NIC.Integrated.1-2-1
ADMIN,S05,36,35,S04,17,NIC.Integrated.1-2-1
ADMIN,S05,36,36,S04,18,NIC.Integrated.1-2-1
ADMIN,S05,36,37,S04,19,NIC.Integrated.1-2-1
ADMIN,S05,36,38,S04,20,NIC.Integrated.1-2-1
ADMIN,S05,36,39,S04,21,NIC.Integrated.1-2-1
ADMIN,S05,36,40,S04,22,NIC.Integrated.1-2-1
ADMIN,S05,36,41,S04,23,NIC.Integrated.1-2-1
ADMIN,S05,36,42,S04,24,NIC.Integrated.1-2-1
ADMIN,S05,36,43,S04,25,NIC.Integrated.1-2-1
ADMIN,S05,36,44,S04,26,NIC.Integrated.1-2-1
ADMIN,S05,36,45,S04,27,NIC.Integrated.1-2-1
ADMIN,S05,36,46,S04,28,NIC.Integrated.1-2-1
ADMIN,S05,36,47,S04,29,NIC.Integrated.1-2-1
ADMIN,S05,36,48,S04,30,NIC.Integrated.1-2-1
BAGG100,S06,6,3,S06,30,11
BAGG100,S06,6,4,S06,30,12
BAGG100,S06,6,29,S06,30,18
BAGG100,S06,6,30,S06,30,19
BAGG100,S07,6,3,S07,30,11
BAGG100,S07,6,4,S07,30,12
BAGG100,S07,6,29,S07,30,18
BAGG100,S07,6,30,S07,30,19
BAGG200,S06,6,27,S06,22,50
BAGG200,S07,6,27,S07,22,50
